19	Congenital Abnormality				
20	Acquired Abnormality				
28	Gene or Genome				
37	Injury or Poisoning				
46	Pathologic Function				
47	Disease or Syndrome				
48	Mental or Behavioral Dysfunction				
49	Cell or Molecular Dysfunction				
50	Experimental Model of Disease				
85	Molecular Sequence				
86	Nucleotide Sequence				
87	Amino Acid Sequence				
88	Carbohydrate Sequence				
103	Chemical				
104	Chemical Viewed Structurally				
109	Organic Chemical				
114	"Nucleic Acid, Nucleoside, or Nucleotide"				
116	"Amino Acid, Peptide, or Protein"				
120	Chemical Viewed Functionally				
121	Pharmacologic Substance				
122	Biomedical or Dental Material				
123	Biologically Active Substance				
125	Hormone				
126	Enzyme				
127	Vitamin				
129	Immunologic Factor				
130	"Indicator, Reagent, or Diagnostic Aid"				
131	Hazardous or Poisonous Substance				
184	Sign or Symptom				
190	Anatomical Abnormality				
191	Neoplastic Process				
192	Receptor				
195	Antibiotic				
196	"Element, Ion, or Isotope"				
197	Inorganic Chemical				
200	Clinical Drug				
